\relax 
\providecommand\hyper@newdestlabel[2]{}
\providecommand\HyperFirstAtBeginDocument{\AtBeginDocument}
\HyperFirstAtBeginDocument{\ifx\hyper@anchor\@undefined
\global\let\oldcontentsline\contentsline
\gdef\contentsline#1#2#3#4{\oldcontentsline{#1}{#2}{#3}}
\global\let\oldnewlabel\newlabel
\gdef\newlabel#1#2{\newlabelxx{#1}#2}
\gdef\newlabelxx#1#2#3#4#5#6{\oldnewlabel{#1}{{#2}{#3}}}
\AtEndDocument{\ifx\hyper@anchor\@undefined
\let\contentsline\oldcontentsline
\let\newlabel\oldnewlabel
\fi}
\fi}
\global\let\hyper@last\relax 
\gdef\HyperFirstAtBeginDocument#1{#1}
\providecommand\HyField@AuxAddToFields[1]{}
\providecommand\HyField@AuxAddToCoFields[2]{}
\select@language{italian}
\@writefile{toc}{\select@language{italian}}
\@writefile{lof}{\select@language{italian}}
\@writefile{lot}{\select@language{italian}}
\select@language{italian}
\@writefile{toc}{\select@language{italian}}
\@writefile{lof}{\select@language{italian}}
\@writefile{lot}{\select@language{italian}}
\@writefile{toc}{\contentsline {section}{\numberline {1}Introduzione}{1}{section.1}}
\@writefile{toc}{\contentsline {subsection}{\numberline {1.1}Dati}{1}{subsection.1.1}}
\@writefile{lof}{\contentsline {figure}{\numberline {1}{\ignorespaces Matrice di correlazione di A-E I-E su K562}}{1}{figure.1}}
\newlabel{img:K562_A-E_vs_I-E_correlation_matrix}{{1}{1}{Matrice di correlazione di A-E I-E su K562}{figure.1}{}}
\@writefile{toc}{\contentsline {paragraph}{Analisi esplorativa}{1}{section*.2}}
\@writefile{toc}{\contentsline {subsection}{\numberline {1.2}Elementi della pipeline}{1}{subsection.1.2}}
\@writefile{toc}{\contentsline {paragraph}{Cross validation}{1}{section*.3}}
\@writefile{toc}{\contentsline {paragraph}{Hyperparameters tuning}{1}{section*.4}}
\@writefile{lof}{\contentsline {figure}{\numberline {2}{\ignorespaces Matrice di correlazione di A-E I-E su HelaS3}}{2}{figure.2}}
\newlabel{img:HelaS3_A-E_vs_I-E_correlation_matrix}{{2}{2}{Matrice di correlazione di A-E I-E su HelaS3}{figure.2}{}}
\@writefile{lof}{\contentsline {figure}{\numberline {3}{\ignorespaces Matrice di correlazione di A-E I-E su GM12878}}{2}{figure.3}}
\newlabel{img:GM12878_A-E_vs_I-E_correlation_matrix}{{3}{2}{Matrice di correlazione di A-E I-E su GM12878}{figure.3}{}}
\@writefile{lof}{\contentsline {figure}{\numberline {4}{\ignorespaces Matrice di correlazione di A-E I-E su HepG2}}{2}{figure.4}}
\newlabel{img:HepG2_A-E_vs_I-E_correlation_matrix}{{4}{2}{Matrice di correlazione di A-E I-E su HepG2}{figure.4}{}}
\@writefile{lof}{\contentsline {figure}{\numberline {5}{\ignorespaces Distribuzione etichette su K562}}{2}{figure.5}}
\newlabel{img:K562_A-E_vs_I-E_distribution_label}{{5}{2}{Distribuzione etichette su K562}{figure.5}{}}
\@writefile{lof}{\contentsline {figure}{\numberline {6}{\ignorespaces Distribuzione etichette su HelaS3}}{2}{figure.6}}
\newlabel{img:HelaS3_A-E_vs_I-E_distribution_label}{{6}{2}{Distribuzione etichette su HelaS3}{figure.6}{}}
\@writefile{lof}{\contentsline {figure}{\numberline {7}{\ignorespaces Distribuzione etichette su GM12878}}{2}{figure.7}}
\newlabel{img:GM12878_A-E_vs_I-E_distribution_label}{{7}{2}{Distribuzione etichette su GM12878}{figure.7}{}}
\@writefile{lof}{\contentsline {figure}{\numberline {8}{\ignorespaces Matrice di correlazione di A-E I-E su HepG2}}{3}{figure.8}}
\newlabel{img:HepG2_A-E_vs_I-E_distribution_label}{{8}{3}{Matrice di correlazione di A-E I-E su HepG2}{figure.8}{}}
\newlabel{ottimizzazione_bayesiana}{{1.2}{3}{Ottimizzazione bayesiana}{section*.5}{}}
\@writefile{toc}{\contentsline {subparagraph}{Ottimizzazione bayesiana}{3}{section*.5}}
\newlabel{eq:opt_max}{{1}{3}{Ottimizzazione bayesiana}{equation.1.1}{}}
\newlabel{eq:scarti_optimization}{{2}{3}{Ottimizzazione bayesiana}{equation.1.2}{}}
\@writefile{toc}{\contentsline {paragraph}{Oversampling}{3}{section*.6}}
\@writefile{toc}{\contentsline {subsubsection}{\numberline {1.2.1}Valutazione delle prestazioni}{4}{subsubsection.1.2.1}}
\newlabel{f1_score}{{1.2.1}{4}{Accuracy vs altre metriche}{section*.7}{}}
\@writefile{toc}{\contentsline {paragraph}{Accuracy vs altre metriche}{4}{section*.7}}
\@writefile{toc}{\contentsline {paragraph}{Curve}{4}{section*.8}}
\@writefile{toc}{\contentsline {subparagraph}{ROC}{4}{section*.9}}
\@writefile{toc}{\contentsline {subparagraph}{PRC}{4}{section*.10}}
\@writefile{toc}{\contentsline {section}{\numberline {2}Modelli}{4}{section.2}}
\@writefile{toc}{\contentsline {subsection}{\numberline {2.1}Random forest}{4}{subsection.2.1}}
\newlabel{ss:random_forest}{{2.1}{4}{Random forest}{subsection.2.1}{}}
\@writefile{toc}{\contentsline {paragraph}{Introduzione}{4}{section*.11}}
\@writefile{toc}{\contentsline {paragraph}{Dati di input}{4}{section*.12}}
\@writefile{toc}{\contentsline {paragraph}{Struttura della random forest}{4}{section*.13}}
\@writefile{lof}{\contentsline {figure}{\numberline {9}{\ignorespaces RF ROC A-E vs I-E su GM12878}}{5}{figure.9}}
\newlabel{img:roc_rf}{{9}{5}{RF ROC A-E vs I-E su GM12878}{figure.9}{}}
\@writefile{lof}{\contentsline {figure}{\numberline {10}{\ignorespaces RF PRC A-E vs I-E su GM12878}}{5}{figure.10}}
\newlabel{img:prc_rf}{{10}{5}{RF PRC A-E vs I-E su GM12878}{figure.10}{}}
\@writefile{toc}{\contentsline {paragraph}{Risultati}{5}{section*.14}}
\@writefile{toc}{\contentsline {subsection}{\numberline {2.2}MultiLayer Perceptron}{5}{subsection.2.2}}
\newlabel{ss:multilayer_perceptron}{{2.2}{5}{MultiLayer Perceptron}{subsection.2.2}{}}
\@writefile{toc}{\contentsline {paragraph}{Introduzione}{5}{section*.15}}
\@writefile{lot}{\contentsline {table}{\numberline {1}{\ignorespaces Parametri del modello migliore}}{5}{table.1}}
\newlabel{table:best_param_rf}{{1}{5}{Parametri del modello migliore}{table.1}{}}
\@writefile{lof}{\contentsline {figure}{\numberline {11}{\ignorespaces RF Matrice di confusione A-E vs I-E su GM12878}}{5}{figure.11}}
\newlabel{img:confusion_rf}{{11}{5}{RF Matrice di confusione A-E vs I-E su GM12878}{figure.11}{}}
\@writefile{toc}{\contentsline {paragraph}{Dati di input}{5}{section*.16}}
\@writefile{toc}{\contentsline {paragraph}{Struttura del MLP}{5}{section*.17}}
\newlabel{img:example_net}{{2.2}{6}{Struttura del MLP}{section*.17}{}}
\@writefile{lof}{\contentsline {figure}{\numberline {12}{\ignorespaces Esempio modello A-E vs I-E su GM12878}}{6}{figure.12}}
\@writefile{lot}{\contentsline {table}{\numberline {2}{\ignorespaces Parametri del modello migliore}}{6}{table.2}}
\newlabel{table:best_param_mlp}{{2}{6}{Parametri del modello migliore}{table.2}{}}
\@writefile{toc}{\contentsline {paragraph}{Risultati}{6}{section*.18}}
\@writefile{lof}{\contentsline {figure}{\numberline {13}{\ignorespaces ROC di MLP A-E vs I-E su GM12878}}{6}{figure.13}}
\newlabel{img:roc_mlp_curve}{{13}{6}{ROC di MLP A-E vs I-E su GM12878}{figure.13}{}}
\@writefile{lof}{\contentsline {figure}{\numberline {14}{\ignorespaces PRC di MLP A-E vs I-E su GM12878}}{6}{figure.14}}
\newlabel{img:prc_mlp_curve}{{14}{6}{PRC di MLP A-E vs I-E su GM12878}{figure.14}{}}
\@writefile{toc}{\contentsline {section}{\numberline {3}Conclusioni}{6}{section.3}}
\@writefile{lof}{\contentsline {figure}{\numberline {15}{\ignorespaces Matrice di confusione di MLP A-E vs I-E su GM12878}}{7}{figure.15}}
\newlabel{img:mlp_confusion}{{15}{7}{Matrice di confusione di MLP A-E vs I-E su GM12878}{figure.15}{}}
\@writefile{lof}{\contentsline {figure}{\numberline {16}{\ignorespaces ROC di MLP vs RF su A-E vs I-E}}{7}{figure.16}}
\newlabel{img:roc_rf_vs_mlp}{{16}{7}{ROC di MLP vs RF su A-E vs I-E}{figure.16}{}}
\@writefile{lof}{\contentsline {figure}{\numberline {17}{\ignorespaces PRC di MLP vs RF su A-E vs I-E}}{7}{figure.17}}
\newlabel{img:prc_rf_vs_mlp}{{17}{7}{PRC di MLP vs RF su A-E vs I-E}{figure.17}{}}
\@writefile{lof}{\contentsline {figure}{\numberline {18}{\ignorespaces ROC di MLP su A-E vs I-E}}{7}{figure.18}}
\newlabel{img:roc_mlp}{{18}{7}{ROC di MLP su A-E vs I-E}{figure.18}{}}
\@writefile{lof}{\contentsline {figure}{\numberline {19}{\ignorespaces ROC di RF su A-E vs I-E}}{8}{figure.19}}
\newlabel{img:roc_rf_}{{19}{8}{ROC di RF su A-E vs I-E}{figure.19}{}}
\@writefile{lof}{\contentsline {figure}{\numberline {20}{\ignorespaces PRC di MLP su A-E vs I-E}}{8}{figure.20}}
\newlabel{img:prc_mlp}{{20}{8}{PRC di MLP su A-E vs I-E}{figure.20}{}}
\@writefile{lof}{\contentsline {figure}{\numberline {21}{\ignorespaces PRC di RF su A-E vs I-E}}{8}{figure.21}}
\newlabel{img:prc_rf_}{{21}{8}{PRC di RF su A-E vs I-E}{figure.21}{}}
\@writefile{lof}{\contentsline {figure}{\numberline {22}{\ignorespaces Convergenza RF A-E vs I-E su HepG2}}{8}{figure.22}}
\newlabel{img:convergenza_rf}{{22}{8}{Convergenza RF A-E vs I-E su HepG2}{figure.22}{}}
\@writefile{lof}{\contentsline {figure}{\numberline {23}{\ignorespaces Convergenza MLP A-E vs I-E su GM12878}}{8}{figure.23}}
\newlabel{img:convergenza_mlp}{{23}{8}{Convergenza MLP A-E vs I-E su GM12878}{figure.23}{}}
