\relax 
\providecommand\hyper@newdestlabel[2]{}
\newlabel{img:example_convergence}{{3}{11}{Conclusioni}{section.3}{}}
\@writefile{lof}{\contentsline {figure}{\numberline {17}{\ignorespaces A-}}{11}{figure.17}}
\@setckpt{chapter/conclusioni}{
\setcounter{page}{12}
\setcounter{equation}{5}
\setcounter{enumi}{2}
\setcounter{enumii}{0}
\setcounter{enumiii}{0}
\setcounter{enumiv}{0}
\setcounter{footnote}{0}
\setcounter{mpfootnote}{0}
\setcounter{part}{0}
\setcounter{section}{3}
\setcounter{subsection}{0}
\setcounter{subsubsection}{0}
\setcounter{paragraph}{0}
\setcounter{subparagraph}{0}
\setcounter{figure}{17}
\setcounter{table}{2}
\setcounter{Item}{2}
\setcounter{Hfootnote}{0}
\setcounter{bookmark@seq@number}{8}
\setcounter{parentequation}{0}
\setcounter{lstnumber}{1}
\setcounter{section@level}{1}
\setcounter{lstlisting}{0}
}
