\relax 
\providecommand\hyper@newdestlabel[2]{}
\@writefile{lot}{\contentsline {table}{\numberline {2}{\ignorespaces Parametri del modello migliore}}{8}{table.2}}
\newlabel{table:best_param_mlp}{{2}{8}{Parametri del modello migliore}{table.2}{}}
\@writefile{toc}{\contentsline {subsection}{\numberline {2.2}MultiLayer Perceptron}{8}{subsection.2.2}}
\@writefile{toc}{\contentsline {paragraph}{Introduzione}{8}{section*.15}}
\@writefile{toc}{\contentsline {paragraph}{Dati di input}{8}{section*.16}}
\@writefile{toc}{\contentsline {paragraph}{Struttura del MLP}{8}{section*.17}}
\@writefile{toc}{\contentsline {paragraph}{Fase di apprendimento}{8}{section*.18}}
\@writefile{toc}{\contentsline {paragraph}{Risultati}{8}{section*.19}}
\newlabel{img:example_net}{{2.2}{8}{Struttura del MLP}{section*.17}{}}
\@writefile{lof}{\contentsline {figure}{\numberline {12}{\ignorespaces Esempio modello A-E vs I-E su GM12878}}{8}{figure.12}}
\@writefile{lof}{\contentsline {figure}{\numberline {13}{\ignorespaces Convergenza MPL A-E vs I-E su GM12878}}{8}{figure.13}}
\@writefile{lof}{\contentsline {figure}{\numberline {14}{\ignorespaces ROC A-E vs I-E su GM12878}}{9}{figure.14}}
\@writefile{lof}{\contentsline {figure}{\numberline {15}{\ignorespaces PRC A-E vs I-E su GM12878}}{9}{figure.15}}
\@writefile{lof}{\contentsline {figure}{\numberline {16}{\ignorespaces Matrice di confusione A-E vs I-E su GM12878}}{9}{figure.16}}
\@setckpt{chapter/epigenomiciMLP}{
\setcounter{page}{10}
\setcounter{equation}{5}
\setcounter{enumi}{2}
\setcounter{enumii}{0}
\setcounter{enumiii}{0}
\setcounter{enumiv}{0}
\setcounter{footnote}{0}
\setcounter{mpfootnote}{0}
\setcounter{part}{0}
\setcounter{section}{2}
\setcounter{subsection}{2}
\setcounter{subsubsection}{0}
\setcounter{paragraph}{0}
\setcounter{subparagraph}{0}
\setcounter{figure}{16}
\setcounter{table}{2}
\setcounter{Item}{2}
\setcounter{Hfootnote}{0}
\setcounter{bookmark@seq@number}{7}
\setcounter{parentequation}{0}
\setcounter{lstnumber}{1}
\setcounter{section@level}{4}
\setcounter{lstlisting}{0}
}
