\relax 
\providecommand\hyper@newdestlabel[2]{}
\@setckpt{chapter/intro}{
\setcounter{page}{5}
\setcounter{equation}{5}
\setcounter{enumi}{2}
\setcounter{enumii}{0}
\setcounter{enumiii}{0}
\setcounter{enumiv}{0}
\setcounter{footnote}{0}
\setcounter{mpfootnote}{0}
\setcounter{part}{0}
\setcounter{section}{1}
\setcounter{subsection}{2}
\setcounter{subsubsection}{1}
\setcounter{paragraph}{0}
\setcounter{subparagraph}{0}
\setcounter{figure}{8}
\setcounter{table}{0}
\setcounter{Item}{2}
\setcounter{Hfootnote}{0}
\setcounter{bookmark@seq@number}{4}
\setcounter{parentequation}{0}
\setcounter{lstnumber}{1}
\setcounter{section@level}{5}
\setcounter{lstlisting}{0}
}
