\relax 
\providecommand\hyper@newdestlabel[2]{}
\@writefile{lof}{\contentsline {figure}{\numberline {9}{\ignorespaces RF ROC A-E vs I-E su GM12878}}{6}{figure.9}}
\newlabel{img:roc_rf}{{9}{6}{RF ROC A-E vs I-E su GM12878}{figure.9}{}}
\@writefile{toc}{\contentsline {subsection}{\numberline {2.1}Random forest}{6}{subsection.2.1}}
\newlabel{random_forest}{{2.1}{6}{Random forest}{subsection.2.1}{}}
\@writefile{toc}{\contentsline {paragraph}{Introduzione}{6}{section*.11}}
\@writefile{toc}{\contentsline {paragraph}{Dati di input}{6}{section*.12}}
\@writefile{toc}{\contentsline {paragraph}{Struttura della random forest}{6}{section*.13}}
\@writefile{toc}{\contentsline {paragraph}{Risultati}{6}{section*.14}}
\@writefile{lof}{\contentsline {figure}{\numberline {10}{\ignorespaces RF PRC A-E vs I-E su GM12878}}{6}{figure.10}}
\newlabel{img:prc_rf}{{10}{6}{RF PRC A-E vs I-E su GM12878}{figure.10}{}}
\@writefile{lof}{\contentsline {figure}{\numberline {11}{\ignorespaces RF Matrice di confusione A-E vs I-E su GM12878}}{6}{figure.11}}
\newlabel{img:confusion_rf}{{11}{6}{RF Matrice di confusione A-E vs I-E su GM12878}{figure.11}{}}
\@writefile{lot}{\contentsline {table}{\numberline {1}{\ignorespaces Parametri del modello migliore}}{6}{table.1}}
\newlabel{table:best_param_rf}{{1}{6}{Parametri del modello migliore}{table.1}{}}
\@setckpt{chapter/random_forest}{
\setcounter{page}{8}
\setcounter{equation}{5}
\setcounter{enumi}{2}
\setcounter{enumii}{0}
\setcounter{enumiii}{0}
\setcounter{enumiv}{0}
\setcounter{footnote}{0}
\setcounter{mpfootnote}{0}
\setcounter{part}{0}
\setcounter{section}{2}
\setcounter{subsection}{1}
\setcounter{subsubsection}{0}
\setcounter{paragraph}{0}
\setcounter{subparagraph}{0}
\setcounter{figure}{11}
\setcounter{table}{1}
\setcounter{Item}{2}
\setcounter{Hfootnote}{0}
\setcounter{bookmark@seq@number}{6}
\setcounter{parentequation}{0}
\setcounter{lstnumber}{1}
\setcounter{section@level}{4}
\setcounter{lstlisting}{0}
}
