\relax 
\providecommand\hyper@newdestlabel[2]{}
\@writefile{toc}{\contentsline {section}{\numberline {4}Sequenze di DNA}{6}{section.4}}
\@writefile{toc}{\contentsline {paragraph}{Dati di input}{6}{section*.9}}
\@writefile{toc}{\contentsline {paragraph}{Struttura della CNN}{6}{section*.10}}
\@writefile{toc}{\contentsline {paragraph}{Fase di apprendimento}{6}{section*.11}}
\@writefile{toc}{\contentsline {paragraph}{Risultati}{6}{section*.12}}
\@setckpt{chapter/sequenzeCNN}{
\setcounter{page}{7}
\setcounter{equation}{5}
\setcounter{enumi}{2}
\setcounter{enumii}{0}
\setcounter{enumiii}{0}
\setcounter{enumiv}{0}
\setcounter{footnote}{0}
\setcounter{mpfootnote}{0}
\setcounter{part}{0}
\setcounter{section}{4}
\setcounter{subsection}{0}
\setcounter{subsubsection}{0}
\setcounter{paragraph}{0}
\setcounter{subparagraph}{0}
\setcounter{figure}{6}
\setcounter{table}{0}
\setcounter{Item}{2}
\setcounter{Hfootnote}{0}
\setcounter{bookmark@seq@number}{7}
\setcounter{parentequation}{0}
\setcounter{lstnumber}{1}
\setcounter{section@level}{4}
\setcounter{lstlisting}{0}
}
